<svg width="512" height="512" xmlns="http://www.w3.org/2000/svg" clip-rule="evenodd">

 <g>
  <title>background</title>
  <rect fill="#ffffff" id="canvas_background" height="514" width="514" y="-1" x="-1"/>
 </g>
 <g>
  <title>Layer 1</title>
  <path fill="#1a1a1a" stroke="null" id="svg_1" d="m469.687953,-20.258881c39.616791,0 71.779543,29.744055 71.779543,66.379223l0,410.550732c0,36.635168 -32.1639,66.379223 -71.779543,66.379223l-443.951324,0c-39.615643,0 -71.779543,-29.744055 -71.779543,-66.379223l0,-410.550732c0,-36.635168 32.162753,-66.379223 71.779543,-66.379223l443.951324,0zm-24.05924,186.369904c-4.749425,-16.436164 -18.746402,-29.380081 -36.519739,-33.772183c-32.218979,-7.984098 -161.396683,-7.984098 -161.396683,-7.984098c0,0 -129.177704,0 -161.396683,7.984098c-17.769895,4.392103 -31.769166,17.33602 -36.519739,33.772183c-8.630207,29.791807 -8.630207,91.950834 -8.630207,91.950834c0,0 0,62.157966 8.630207,91.946589c4.750572,16.436164 18.749844,29.383264 36.519739,33.775367c32.218979,7.980915 161.396683,7.980915 161.396683,7.980915c0,0 129.177704,0 161.396683,-7.980915c17.773337,-4.392103 31.770314,-17.339203 36.519739,-33.775367c8.630207,-29.788624 8.630207,-91.946589 8.630207,-91.946589c0,0 0,-62.159027 -8.630207,-91.950834zm-239.228043,149.254035l0,-114.606402l107.323923,57.303201l-107.323923,57.303201z"/>
 </g>
</svg>