<svg width="512" height="512" xmlns="http://www.w3.org/2000/svg" clip-rule="evenodd">

 <g>
  <title>background</title>
  <rect fill="#ffffff" id="canvas_background" height="514" width="514" y="-1" x="-1"/>
 </g>
 <g>
  <title>Layer 1</title>
  <path stroke="null" fill="#1a1a1a" id="svg_1" d="m453.258107,-23.021551c43.094151,0 78.079986,30.500266 78.079986,68.066844l0,420.988544c0,37.566578 -34.987083,68.066844 -78.079986,68.066844l-132.8935,0l0,-209.916475l83.130209,0l15.817207,-89.902336l-98.947416,0l0,-58.342232c0,-24.594988 13.821333,-48.569742 58.141218,-48.569742l44.987673,0l0,-76.539019c0,0 -40.828666,-6.073938 -79.862418,-6.073938c-81.492569,0 -134.755816,43.056191 -134.755816,121.004337l0,68.520594l-90.585716,0l0,89.902336l90.585716,0l0,209.916475l-238.536268,0c-43.092903,0 -78.079986,-30.500266 -78.079986,-68.066844l0,-420.988544c0,-37.566578 34.985835,-68.066844 78.079986,-68.066844l482.919112,0z"/>
 </g>
</svg>