<svg width="512" height="512" xmlns="http://www.w3.org/2000/svg" clip-rule="evenodd">

 <g>
  <title>background</title>
  <rect fill="#ffffff" id="canvas_background" height="514" width="514" y="-1" x="-1"/>
 </g>
 <g>
  <title>Layer 1</title>
  <path fill="#1a1a1a" stroke="null" id="svg_1" d="m470.925578,-31.309284c38.933759,0 70.541994,30.449852 70.541994,67.954336l0,420.292695c0,37.504484 -31.609363,67.954337 -70.541994,67.954337l-436.297171,0c-38.932631,0 -70.541994,-30.449853 -70.541994,-67.954337l0,-420.292695c0,-37.504484 31.608235,-67.954336 70.541994,-67.954336l436.297171,0zm-66.1654,138.727701c-38.163541,-36.805973 -88.915571,-57.08451 -142.989797,-57.106237c-111.415393,0 -202.094683,87.346428 -202.138663,194.707414c-0.01466,34.320449 9.293356,67.817459 26.98242,97.348276l-28.676222,100.902749l107.154952,-27.076795c29.52425,15.512804 62.766519,23.689616 96.596319,23.699393l0.083449,0c111.404116,0 202.090172,-87.355119 202.136408,-194.717191c0.020298,-52.029814 -20.986452,-100.952721 -59.148866,-137.757609zm-142.98867,299.59048l-0.067661,0c-30.147867,-0.010863 -59.716098,-7.813977 -85.511052,-22.559831l-6.135803,-3.507763l-63.586355,16.069006l16.971848,-59.723209l-3.994305,-6.123646c-16.817354,-25.767767 -25.701355,-55.550612 -25.687823,-86.13191c0.037214,-89.233385 75.405754,-161.831785 168.078813,-161.831785c44.87447,0.015208 87.057126,16.871803 118.779258,47.463965c31.719878,30.591075 49.177764,71.254609 49.160849,114.499266c-0.038342,89.240988 -75.404627,161.844821 -168.007769,161.845907zm92.156574,-121.213876c-5.050957,-2.435554 -29.882858,-14.203776 -34.512056,-15.828926c-4.629199,-1.624065 -7.996504,-2.434468 -11.363809,2.434467c-3.367305,4.870021 -13.046333,15.830012 -15.993007,19.078141c-2.945546,3.245957 -5.89222,3.654417 -10.94205,1.216691c-5.050957,-2.434467 -21.324761,-7.571726 -40.616283,-24.149134c-15.014166,-12.901264 -25.152167,-28.833392 -28.097713,-33.704499c-2.945546,-4.871107 -0.314628,-7.504373 2.21367,-9.929064c2.273439,-2.180266 5.052085,-5.683682 7.577,-8.524437c2.526043,-2.840755 3.367305,-4.871108 5.050958,-8.117064c1.683652,-3.248129 0.84239,-6.087798 -0.421759,-8.523352c-1.261894,-2.434467 -11.363809,-26.384802 -15.572376,-36.127017c-4.099181,-9.486926 -8.26264,-8.201797 -11.363808,-8.351711c-2.942163,-0.141223 -6.312851,-0.17164 -9.679029,-0.17164c-3.367305,0 -8.840021,1.217777 -13.46922,6.087798c-4.629198,4.871107 -17.676659,16.642588 -17.676659,40.589664c0,23.949248 18.097291,47.083749 20.622205,50.331878c2.526043,3.248129 35.614945,52.390476 86.28127,73.465293c12.049448,5.013417 21.457829,8.007344 28.793502,10.248445c12.09794,3.704388 23.108779,3.181863 31.811221,1.928237c9.703838,-1.395935 29.882858,-11.768222 34.091425,-23.133414c4.208568,-11.367366 4.208568,-21.108494 2.945546,-23.136674c-1.261893,-2.030352 -4.629198,-3.248129 -9.679028,-5.683682z"/>
 </g>
</svg>